{
    "extensionDescription": {
        "message": "Posuňte vaše panely na stranu okna prohlízeče."
    },
    "browserActionTitle": {
        "message": "Přepnout Tab Center Reborn",
        "description": "Tooltip shown when hovering the toolbar button."
    },
    "sidebarTitle": {
        "message": "Panely",
        "description": "Label shown in the sidebar selector."
    },
    "newTabBtnLabel": {
        "message": "Nový panel",
        "description": "Label of the New Tab button in the top menu."
    },
    "newTabBtnTooltip": {
        "message": "Otevře nový panel"
    },
    "searchPlaceholder": {
        "message": "Vyhledávat v záložkách"
    },
    "closeTabButtonTooltip": {
        "message": "Zavře panel"
    },
    "allTabsLabel": {
        "message": "Zobrazit všechny panely…",
        "description": "Shown at the bottom of the list of tabs if some tabs are filtered by the current search query."
    },
    "contextMenuReloadTab": {
        "message": "Obnovit panel",
        "description": "Reload Tab context menu item label."
    },
    "contextMenuPinTab": {
        "message": "Připnout panel",
        "description": "Pin Tab context menu item label."
    },
    "contextMenuUnpinTab": {
        "message": "Odepnout panel",
        "description": "Unpin Tab context menu item label."
    },
    "contextMenuMuteTab": {
        "message": "Vypnout zvuk panelu",
        "description": "Mute Tab context menu item label."
    },
    "contextMenuUnmuteTab": {
        "message": "Zapnout zvuk panelu",
        "description": "Unmute Tab context menu item label."
    },
    "contextMenuCloseTab": {
        "message": "Zavřít panel"
    },
    "contextMenuUndoCloseTab": {
        "message": "Vrátit zavření panelu"
    },
    "contextMenuDuplicateTab": {
        "message": "Duplikovat kartu"
    },
    "contextMenuMoveTabToNewWindow": {
        "message": "Přesunout do nového okna"
    },
    "contextMenuReloadAllTabs": {
        "message": "Obnovit všechny panely"
    },
    "contextMenuCloseTabsAfter": {
        "message": "Zavřít panely níže"
    },
    "contextMenuCloseOtherTabs": {
        "message": "Zavřít ostatní panely"
    },
    "settingsBtnTooltip": {
        "message": "Otevřít nastavení"
    },
    "optionsTitle": {
        "message": "Nastavení"
    },
    "optionsCompactMode": {
        "message": "Kompaktní režim"
    },
    "optionsCompactModeExplanation": {
        "message": "Kompaktní režim snižuje výšku záložek aby jich bylo zobrazeno více. Dynamické nastavení aktivuje kompaktní režim když bude málo místa."
    },
    "optionsCompactModeOff": {
        "message": "Deaktivováno"
    },
    "optionsCompactModeDynamic": {
        "message": "Dynamický"
    },
    "optionsCompactModeStrict": {
        "message": "Pokaždé"
    },
    "optionsCompactPins": {
        "message": "Kompaktní připnuté karty"
    },
    "optionsDarkTheme": {
        "message": "Tmavý vzhled"
    },
    "optionsThemeIntegration": {
        "message": ""
    },
    "optionsAdvancedTitle": {
        "message": "Pokročilé"
    },
    "optionsCustomCSS": {
        "message": "Vlastní šablona stylů"
    },
    "optionsCustomCSSWikiLink": {
        "message": "Wiki článek o CSS vylepšeních"
    },
    "optionsSaveCustomCSS": {
        "message": "Uložit CSS"
    },
    "contextMenuOpenInContextualTab": {
        "message": "Otevřít v kontejnerovém panelu"
    },
    "contextMenuMoveTab": {
        "message": "Přesunout panel"
    },
    "contextMenuMoveTabToStart": {
        "message": "Přesunout na začátek"
    },
    "contextMenuMoveTabToEnd": {
        "message": "Přesunout na konec"
    }
}
